{
  "name": "Deepak Talan",
  "age": 23,
  "isMarried": false,
  "hobbies": ["Football",
              "cricket"],
  "address" : {
    "city": "Nagpur",
    "state": "Maharashtra"
  },
  "mobileNumber" : [
    {
      "type" : "personal",
      "number" : 7878454590
    },
    {
      "type" : "home",
      "number" : 97650077205
    }
  ],
  "spouse" : null
}